{
  "UserAgent": "MobileHub/1.0",
  "Version": "1.0",
  "CredentialsProvider": {
    "CognitoIdentity": {
      "Default": {
        "PoolId": "us-east-1:9543af42-64a5-43bf-bbb5-42ef085eb4b9",
        "Region": "us-east-1"
      }
    }
  },
  "IdentityManager": {
    "Default": {}
  },
  "ContentManager": {
    "Default": {
      "Bucket": "hub-hosting-mobilehub-341201742",
      "Region": "us-east-1",
      "CloudFrontURL": "https://d2db9215nqfbjz.cloudfront.net"
    }
  },
  "PinpointAnalytics": {
    "Default": {
      "AppId": "6eca7872df9444f983bf10a8d71be8f9",
      "Region": "us-east-1"
    }
  },
  "PinpointTargeting": {
    "Default": {
      "Region": "us-east-1"
    }
  }
}