{
  "images" : [
    {
      "idiom" : "universal",
      "filename" : "netbanking-credit-debit-bank-transaction-card-32270.png",
      "scale" : "1x"
    },
    {
      "idiom" : "universal",
      "filename" : "netbanking-credit-debit-bank-transaction-card-32271.png",
      "scale" : "2x"
    },
    {
      "idiom" : "universal",
      "filename" : "netbanking-credit-debit-bank-transaction-card-32272.png",
      "scale" : "3x"
    }
  ],
  "info" : {
    "version" : 1,
    "author" : "xcode"
  }
}